[
    {
        "label": "PR",
        "value": 13663.0
    },
    {
        "label": "VI",
        "value": 16993.0
    },
    {
        "label": "AK",
        "value": 18558.0
    },
    {
        "label": "WY",
        "value": 19960.0
    },
    {
        "label": "ND",
        "value": 22353.44
    },
    {
        "label": "ID",
        "value": 22952.17
    },
    {
        "label": "UT",
        "value": 24850.8
    },
    {
        "label": "MS",
        "value": 26809.82
    },
    {
        "label": "NM",
        "value": 26863.0
    },
    {
        "label": "HI",
        "value": 26941.33
    },
    {
        "label": "MT",
        "value": 28344.83
    },
    {
        "label": "CO",
        "value": 28801.67
    },
    {
        "label": "SD",
        "value": 29048.09
    },
    {
        "label": "AL",
        "value": 29058.82
    },
    {
        "label": "WV",
        "value": 29416.2
    },
    {
        "label": "DE",
        "value": 29910.33
    },
    {
        "label": "NV",
        "value": 29929.67
    },
    {
        "label": "LA",
        "value": 30313.53
    },
    {
        "label": "AR",
        "value": 30752.93
    },
    {
        "label": "AZ",
        "value": 31024.33
    },
    {
        "label": "OK",
        "value": 31585.47
    },
    {
        "label": "GA",
        "value": 32076.44
    },
    {
        "label": "SC",
        "value": 33019.42
    },
    {
        "label": "TX",
        "value": 33039.91
    },
    {
        "label": "FL",
        "value": 33629.91
    },
    {
        "label": "KY",
        "value": 33890.71
    },
    {
        "label": "MO",
        "value": 34278.56
    },
    {
        "label": "MI",
        "value": 34594.94
    },
    {
        "label": "ME",
        "value": 35326.89
    },
    {
        "label": "NC",
        "value": 35806.78
    },
    {
        "label": "KS",
        "value": 35825.62
    },
    {
        "label": "MD",
        "value": 37438.11
    },
    {
        "label": "TN",
        "value": 37491.1
    },
    {
        "label": "NE",
        "value": 38658.5
    },
    {
        "label": "IN",
        "value": 38777.74
    },
    {
        "label": "VA",
        "value": 40986.97
    },
    {
        "label": "OR",
        "value": 41020.88
    },
    {
        "label": "OH",
        "value": 41142.23
    },
    {
        "label": "IL",
        "value": 41168.37
    },
    {
        "label": "MN",
        "value": 41955.3
    },
    {
        "label": "WA",
        "value": 42787.0
    },
    {
        "label": "NJ",
        "value": 43040.33
    },
    {
        "label": "IA",
        "value": 43526.38
    },
    {
        "label": "NY",
        "value": 43918.09
    },
    {
        "label": "CA",
        "value": 45570.42
    },
    {
        "label": "WI",
        "value": 45616.44
    },
    {
        "label": "PA",
        "value": 45871.16
    },
    {
        "label": "VT",
        "value": 47340.75
    },
    {
        "label": "NH",
        "value": 49920.25
    },
    {
        "label": "RI",
        "value": 50175.67
    },
    {
        "label": "CT",
        "value": 51922.42
    },
    {
        "label": "MA",
        "value": 52320.78
    },
    {
        "label": "DC",
        "value": 58859.8
    }
]